%YAML 1.1
%TAG !u! tag:unity3d.com,2011:
--- !u!114 &11400000
MonoBehaviour:
  m_ObjectHideFlags: 0
  m_CorrespondingSourceObject: {fileID: 0}
  m_PrefabInternal: {fileID: 0}
  m_GameObject: {fileID: 0}
  m_Enabled: 1
  m_EditorHideFlags: 0
  m_Script: {fileID: 11500000, guid: 1c37f7746917f4760aa00e7ff7fd81dc, type: 3}
  m_Name: ARImagesSet_UnityLogo
  m_EditorClassIdentifier: 
  resourceGroupName: AR Rezources
  referenceImages:
  - {fileID: 11400000, guid: 9d6cedfb4c48647ca9007fb8cb8aa6b0, type: 2}
  - {fileID: 11400000, guid: fa9c5deee83494083beea0977b5302c2, type: 2}
  - {fileID: 11400000, guid: ef69cf3a301f802498c8ca31866bc978, type: 2}
